DATA 607 Fall 2025 – Meetup 5: Data Transformation
…
if_else and case_when: vector output

diamonds |> 
  mutate( cut = if_else(
      cut == "Very Good", "Very_Good", cut)
    )

Logical Subsetting using Base

Can use [] for other data types

diabetes = read_csv("../../assignments/labs/labData/diabetes.csv")
diabetes

# A tibble: 768 × 9
   Pregnancies Glucose BloodPressure SkinThickness Insulin   BMI
         <dbl>   <dbl>         <dbl>         <dbl>   <dbl> <dbl>
 1           6     148            72            35       0  33.6
 2           1      85            66            29       0  26.6
 3           8     183            64             0       0  23.3
 4           1      89            66            23      94  28.1
 5           0     137            40            35     168  43.1
 6           5     116            74             0       0  25.6
 7           3      78            50            32      88  31  
 8          10     115             0             0       0  35.3
 9           2     197            70            45     543  30.5
10           8     125            96             0       0   0  
# ℹ 758 more rows
# ℹ 3 more variables: DiabetesPedigreeFunction <dbl>, Age <dbl>, Outcome <dbl>

Logical Subsetting using Base

Can use [] for other data types

diabetes[2:6][diabetes[2:6]==0] = NA
diabetes

# A tibble: 768 × 9
   Pregnancies Glucose BloodPressure SkinThickness Insulin   BMI
         <dbl>   <dbl>         <dbl>         <dbl>   <dbl> <dbl>
 1           6     148            72            35      NA  33.6
 2           1      85            66            29      NA  26.6
 3           8     183            64            NA      NA  23.3
 4           1      89            66            23      94  28.1
 5           0     137            40            35     168  43.1
 6           5     116            74            NA      NA  25.6
 7           3      78            50            32      88  31  
 8          10     115            NA            NA      NA  35.3
 9           2     197            70            45     543  30.5
10           8     125            96            NA      NA  NA  
# ℹ 758 more rows
# ℹ 3 more variables: DiabetesPedigreeFunction <dbl>, Age <dbl>, Outcome <dbl>
…
