DATA 607 Fall 2025 – Meetup 9: Hierarchical Data and Webscraping
…
  Meetup 9: Hierarchical Data and Webscraping

George Hagstrom 

Lab 6: Primary Keys

Most common mistake on Lab 6 was not identifying keys correctly in the college sports dataset

# A tibble: 132,327 × 28
    year unitid institution_name  city_txt state_cd zip_text classification_code
   <dbl>  <dbl> <chr>             <chr>    <chr>    <chr>                  <dbl>
 1  2015 100654 Alabama A & M Un… Normal   AL       35762                      2
 2  2015 100654 Alabama A & M Un… Normal   AL       35762                      2
 3  2015 100654 Alabama A & M Un… Normal   AL       35762                      2
 4  2015 100654 Alabama A & M Un… Normal   AL       35762                      2
 5  2015 100654 Alabama A & M Un… Normal   AL       35762                      2
 6  2015 100654 Alabama A & M Un… Normal   AL       35762                      2
 7  2015 100654 Alabama A & M Un… Normal   AL       35762                      2
 8  2015 100654 Alabama A & M Un… Normal   AL       35762                      2
 9  2015 100654 Alabama A & M Un… Normal   AL       35762                      2
10  2015 100654 Alabama A & M Un… Normal   AL       35762                      2
# ℹ 132,317 more rows
# ℹ 21 more variables: classification_name <chr>, classification_other <chr>,
#   ef_male_count <dbl>, ef_female_count <dbl>, ef_total_count <dbl>,
#   sector_cd <dbl>, sector_name <chr>, sportscode <dbl>, partic_men <dbl>,
#   partic_women <dbl>, partic_coed_men <dbl>, partic_coed_women <dbl>,
#   sum_partic_men <dbl>, sum_partic_women <dbl>, rev_men <dbl>,
#   rev_women <dbl>, total_rev_menwomen <dbl>, exp_men <dbl>, …
…
Rectangling GOT

Start by turning it into tibble:

# A tibble: 30 × 1
   json             
   <list>           
 1 <named list [18]>
 2 <named list [18]>
 3 <named list [18]>
 4 <named list [18]>
 5 <named list [18]>
 6 <named list [18]>
 7 <named list [18]>
 8 <named list [18]>
 9 <named list [18]>
10 <named list [18]>
# ℹ 20 more rows

Rectangling GOT

Lists are named, structure is same, so use unnest_wider

chars |> unnest_wider(json)

# A tibble: 30 × 18
   url           id name  gender culture born  died  alive titles aliases father
   <chr>      <int> <chr> <chr>  <chr>   <chr> <chr> <lgl> <list> <list>  <chr> 
 1 https://w…  1022 Theo… Male   "Ironb… "In … ""    TRUE  <chr>  <chr>   ""    
 2 https://w…  1052 Tyri… Male   ""      "In … ""    TRUE  <chr>  <chr>   ""    
 3 https://w…  1074 Vict… Male   "Ironb… "In … ""    TRUE  <chr>  <chr>   ""    
 4 https://w…  1109 Will  Male   ""      ""    "In … FALSE <chr>  <chr>   ""    
 5 https://w…  1166 Areo… Male   "Norvo… "In … ""    TRUE  <chr>  <chr>   ""    
 6 https://w…  1267 Chett Male   ""      "At … "In … FALSE <chr>  <chr>   ""    
 7 https://w…  1295 Cres… Male   ""      "In … "In … FALSE <chr>  <chr>   ""    
 8 https://w…   130 Aria… Female "Dorni… "In … ""    TRUE  <chr>  <chr>   ""    
 9 https://w…  1303 Daen… Female "Valyr… "In … ""    TRUE  <chr>  <chr>   ""    
10 https://w…  1319 Davo… Male   "Weste… "In … ""    TRUE  <chr>  <chr>   ""    
# ℹ 20 more rows
# ℹ 7 more variables: mother <chr>, spouse <chr>, allegiances <list>,
#   books <list>, povBooks <list>, tvSeries <list>, playedBy <list>
…
