DATA 607 Fall 2025 – Meetup 11: Text Mining and Natural Language Processing
…
How to Tokenize

token can be words, sentences, lines, paragraphs, regex, ngrams, various others

library(janeaustenr)
austen_books() |> filter(book == "Pride & Prejudice") |> select(text) 

# A tibble: 13,030 × 1
   text                                                                     
   <chr>                                                                    
 1 "PRIDE AND PREJUDICE"                                                    
 2 ""                                                                       
 3 "By Jane Austen"                                                         
 4 ""                                                                       
 5 ""                                                                       
 6 ""                                                                       
 7 "Chapter 1"                                                              
 8 ""                                                                       
 9 ""                                                                       
10 "It is a truth universally acknowledged, that a single man in possession"
# ℹ 13,020 more rows

How to Tokenize

token can be words, sentences, lines, paragraphs, regex, ngrams, various others

austen_books() |> filter(book == "Pride & Prejudice") |> select(text) |> 
  unnest_tokens(word,text)

# A tibble: 122,204 × 1
   word     
   <chr>    
 1 pride    
 2 and      
 3 prejudice
 4 by       
 5 jane     
 6 austen   
 7 chapter  
 8 1        
 9 it       
10 is       
# ℹ 122,194 more rows

How to Tokenize

token can be words, sentences, lines, paragraphs, regex, ngrams, various others

austen_books() |> filter(book == "Pride & Prejudice") |> select(text) |> 
  unnest_tokens(sentence,text,token="sentences")

# A tibble: 15,545 × 1
   sentence                                                                  
   <chr>                                                                     
 1 "pride and prejudice"                                                     
 2 "by jane austen"                                                          
 3 "chapter 1"                                                               
 4 "it is a truth universally acknowledged, that a single man in possession" 
 5 "of a good fortune, must be in want of a wife."                           
 6 "however little known the feelings or views of such a man may be on his"  
 7 "first entering a neighbourhood, this truth is so well fixed in the minds"
 8 "of the surrounding families, that he is considered the rightful property"
 9 "of some one or other of their daughters."                                
10 "\"my dear mr."                                                           
# ℹ 15,535 more rows
…
original_books

Other Ways to Tidy

Stemming/Lematization

run, runner, running, runners, runs

Replace with run using regex

# A tibble: 73,422 × 4
   text                    book                linenumber chapter
   <chr>                   <fct>                    <int>   <int>
 1 "SENSE AND SENSIBILITY" Sense & Sensibility          1       0
 2 ""                      Sense & Sensibility          2       0
 3 "by Jane Austen"        Sense & Sensibility          3       0
 4 ""                      Sense & Sensibility          4       0
 5 "(1811)"                Sense & Sensibility          5       0
 6 ""                      Sense & Sensibility          6       0
 7 ""                      Sense & Sensibility          7       0
 8 ""                      Sense & Sensibility          8       0
 9 ""                      Sense & Sensibility          9       0
10 "CHAPTER 1"             Sense & Sensibility         10       1
# ℹ 73,412 more rows
…
Types of Lexicons

There are many different sentiment lexicons:

afinn ranks words from -5 to 5:

# A tibble: 2,477 × 2
   word       value
   <chr>      <dbl>
 1 abandon       -2
 2 abandoned     -2
 3 abandons      -2
 4 abducted      -2
 5 abduction     -2
 6 abductions    -2
 7 abhor         -3
 8 abhorred      -3
 9 abhorrent     -3
10 abhors        -3
# ℹ 2,467 more rows

Types of Lexicons

There are many different sentiment lexicons:

afinn ranks words from -5 to 5:

get_sentiments("afinn")

# A tibble: 2,477 × 2
   word       value
   <chr>      <dbl>
 1 abandon       -2
 2 abandoned     -2
 3 abandons      -2
 4 abducted      -2
 5 abduction     -2
 6 abductions    -2
 7 abhor         -3
 8 abhorred      -3
 9 abhorrent     -3
10 abhors        -3
# ℹ 2,467 more rows

Types of Lexicons

There are many different sentiment lexicons:

bing splits words into positive or negative

get_sentiments("bing")

# A tibble: 6,786 × 2
   word        sentiment
   <chr>       <chr>    
 1 2-faces     negative 
 2 abnormal    negative 
 3 abolish     negative 
 4 abominable  negative 
 5 abominably  negative 
 6 abominate   negative 
 7 abomination negative 
 8 abort       negative 
 9 aborted     negative 
10 aborts      negative 
# ℹ 6,776 more rows

Types of Lexicons

There are many different sentiment lexicons:

nrc groups words into 10 broad categories

get_sentiments("nrc")

# A tibble: 13,872 × 2
   word        sentiment
   <chr>       <chr>    
 1 abacus      trust    
 2 abandon     fear     
 3 abandon     negative 
 4 abandon     sadness  
 5 abandoned   anger    
 6 abandoned   fear     
 7 abandoned   negative 
 8 abandoned   sadness  
 9 abandonment anger    
10 abandonment fear     
# ℹ 13,862 more rows
…
There are many different sentiment lexicons:

nrc groups words into 10 broad categories

get_sentiments("nrc") |> distinct(sentiment) |> nrow()

[1] 10

Example: A Modest Proposal

modest_proposal = gutenberg_download(1080)  |> unnest_tokens(word,text) |> anti_join(stop_words)
modest_proposal |> 
  inner_join(get_sentiments("afinn")) 

# A tibble: 142 × 3
   gutenberg_id word       value
          <int> <chr>      <dbl>
 1         1080 preventing    -1
 2         1080 poor          -2
 3         1080 burden        -2
 4         1080 swift          2
 5         1080 melancholy    -2
 6         1080 honest         2
 7         1080 forced        -1
 8         1080 helpless      -2
 9         1080 leave         -1
10         1080 dear           2
# ℹ 132 more rows
…
Analyzing Word Frequency

Can we determine what a document is about by looking at the words?

Take a look at Shakespeare

shakespeare <-  gutenberg_download(c("2266","2265","2264","2267"),meta_fields = "title")

shakespeare |> unnest_tokens(word,text) |> count(title,word,sort=TRUE)

# A tibble: 17,111 × 3
   title     word      n
   <chr>     <chr> <int>
 1 Hamlet    the    1031
 2 Hamlet    and     881
 3 Othello   i       868
 4 Othello   and     787
 5 King Lear the     767
 6 Othello   the     737
 7 Hamlet    to      696
 8 Macbeth   the     687
 9 King Lear and     654
10 Hamlet    of      632
# ℹ 17,101 more rows
…
Weight counts of a word in a document relative to the occurrence of that word across all documents.

\[
\mathrm{tf}\cdot\mathrm{idf}(term,doc) =  \frac{n_{term\_in\_doc}}{n_{words\_in\_doc}}  \log(\frac{n_{docs}}{n_{docs\_with\_term}})
\]

Calculating tf-idf

bind_tf_idf calculates tf-idf given text and a grouping that defines corpus documents

shakespeare |> unnest_tokens(word,text) |>  
  count(title,word,sort=TRUE) |> 
  bind_tf_idf(word,title,n)  

# A tibble: 17,111 × 6
   title     word      n     tf   idf tf_idf
   <chr>     <chr> <int>  <dbl> <dbl>  <dbl>
 1 Hamlet    the    1031 0.0340     0      0
 2 Hamlet    and     881 0.0291     0      0
 3 Othello   i       868 0.0309     0      0
 4 Othello   and     787 0.0280     0      0
 5 King Lear the     767 0.0302     0      0
 6 Othello   the     737 0.0262     0      0
 7 Hamlet    to      696 0.0230     0      0
 8 Macbeth   the     687 0.0372     0      0
 9 King Lear and     654 0.0258     0      0
10 Hamlet    of      632 0.0208     0      0
# ℹ 17,101 more rows
…
Alternative Tokenization n-grams

n-grams are combinations of n words

Can tokenize using unnest_tokens:

austen_bigrams <- austen_books() %>%
  unnest_tokens(bigram, text, token = "ngrams", n = 2) %>%
  filter(!is.na(bigram))
austen_bigrams

# A tibble: 662,783 × 2
   book                bigram         
   <fct>               <chr>          
 1 Sense & Sensibility sense and      
 2 Sense & Sensibility and sensibility
 3 Sense & Sensibility by jane        
 4 Sense & Sensibility jane austen    
 5 Sense & Sensibility chapter 1      
 6 Sense & Sensibility the family     
 7 Sense & Sensibility family of      
 8 Sense & Sensibility of dashwood    
 9 Sense & Sensibility dashwood had   
10 Sense & Sensibility had long       
# ℹ 662,773 more rows
…
The presence of one word can change the meaning of another

“The food was great” vs “The food was not great”

Combinations of words can be distinct units:

“Spring Street”, “Chief Executive Officer”

Filter n-grams?

Look at the common bi-grams

austen_bigrams |> count(bigram,sort=TRUE)

# A tibble: 193,209 × 2
   bigram       n
   <chr>    <int>
 1 of the    2853
 2 to be     2670
 3 in the    2221
 4 it was    1691
 5 i am      1485
 6 she had   1405
 7 of her    1363
 8 to the    1315
 9 she was   1309
10 had been  1206
# ℹ 193,199 more rows

How do we remove the bi-grams with stop words?

Separate

Can use separate to split the bi-gram into two

austen_bigrams |> separate(bigram,c("word1","word2")) |> 
  count(word1,word2, sort = TRUE)

# A tibble: 187,965 × 3
   word1 word2     n
   <chr> <chr> <int>
 1 of    the    2853
 2 to    be     2671
 3 in    the    2221
 4 it    was    1694
 5 i     am     1488
 6 she   had    1409
 7 of    her    1371
 8 to    the    1316
 9 she   was    1310
10 had   been   1206
# ℹ 187,955 more rows

Then Filter

Then can use filter to remove the stop words

austen_bigrams |> separate(bigram,c("word1","word2")) |> 
  count(word1,word2, sort = TRUE) |> 
  anti_join(stop_words,by = join_by("word1" == "word")) |> 
  anti_join(stop_words, by = join_by("word2" == "word"))

# A tibble: 26,022 × 3
   word1   word2         n
   <chr>   <chr>     <int>
 1 sir     thomas      300
 2 miss    crawford    240
 3 captain wentworth   167
 4 miss    woodhouse   152
 5 lady    russell     136
 6 frank   churchill   131
 7 sir     walter      123
 8 colonel brandon     116
 9 lady    bertram     116
10 miss    fairfax     111
# ℹ 26,012 more rows

And finally unite

Put the two words back together

austen_bigrams |> separate(bigram,c("word1","word2")) |> 
  count(word1,word2, sort = TRUE) |> 
  anti_join(stop_words,by = join_by("word1" == "word")) |> 
  anti_join(stop_words, by = join_by("word2" == "word")) |> 
  unite(bigram,word1,word2,sep=" ")

# A tibble: 26,022 × 2
   bigram                n
   <chr>             <int>
 1 sir thomas          300
 2 miss crawford       240
 3 captain wentworth   167
 4 miss woodhouse      152
 5 lady russell        136
 6 frank churchill     131
 7 sir walter          123
 8 colonel brandon     116
 9 lady bertram        116
10 miss fairfax        111
# ℹ 26,012 more rows
…
